<svg width="20" height="20" viewBox="0 0 20 20" fill="none" xmlns="http://www.w3.org/2000/svg">
<path d="M15.242 15.5085H-6.90131e-08V0.842154C-6.90131e-08 0.377359 0.370873 -1.7555e-08 0.82768 -1.7555e-08H14.4143C14.8711 -1.7555e-08 15.242 0.377359 15.242 0.842154V15.5085ZM0.551787 14.9471H14.6902V0.842154C14.6902 0.685688 14.5681 0.561436 14.4143 0.561436H0.82768C0.673903 0.561436 0.551787 0.685688 0.551787 0.842154V14.9471Z" transform="translate(2.37891 1.25977)" fill="#c1282d"/>
<path d="M19.1723 2.3884H0.82768C0.370873 2.3884 0 2.01104 0 1.54625V0.842154C0 0.377358 0.370873 5.61759e-07 0.82768 5.61759e-07H19.1723C19.6291 5.61759e-07 20 0.377358 20 0.842154V1.54165C20 2.01105 19.6291 2.3884 19.1723 2.3884ZM0.82768 0.561436C0.673903 0.561436 0.551786 0.685688 0.551786 0.842154V1.54165C0.551786 1.69811 0.673903 1.82236 0.82768 1.82236H19.1723C19.3261 1.82236 19.4482 1.69811 19.4482 1.54165V0.842154C19.4482 0.685688 19.3261 0.561436 19.1723 0.561436H0.82768Z" transform="translate(0 17.6113)" fill="#c1282d"/>
<path d="M17.8607 18.173H1.72533e-08V0.842154C1.72533e-08 0.377358 0.370873 0 0.82768 0H17.033C17.4898 0 17.8607 0.377358 17.8607 0.842154V18.173ZM0.551786 17.6116H17.3089V0.842154C17.3089 0.685688 17.1868 0.561436 17.033 0.561436H0.82768C0.673903 0.561436 0.551786 0.685688 0.551786 0.842154V17.6116Z" transform="translate(1.06738)" fill="#c1282d"/>
<path d="M0.551786 0H0V14.7492H0.551786V0Z" transform="translate(9.72363 1.54102)" fill="#c1282d"/>
<path d="M14.6902 0H0V0.561436H14.6902V0Z" transform="translate(2.65527 8.80664)" fill="#c1282d"/>
</svg>
