<svg width="64" height="50" viewBox="0 0 64 50" fill="none" xmlns="http://www.w3.org/2000/svg">
<path d="M35.443 33.1646C34.6835 33.1646 33.9241 33.038 33.1646 32.7848L10.3797 25.3165C10.1266 25.1899 9.87342 25.1899 9.62025 25.3165L6.96203 25.6962L6.83544 24.3038L9.49367 23.9241C10 23.7975 10.5063 23.9241 10.8861 24.0506L33.6709 31.519C34.6835 31.7722 35.6962 31.8987 36.5823 31.6456L37.0886 31.519C37.3418 31.519 37.5949 31.3924 37.8481 31.2658L58.7342 22.5316C59.7468 22.1519 60.7595 21.3924 61.3924 20.5063L61.6456 20.2532C61.8987 19.6203 62.0253 19.2405 61.8987 18.6076C61.6456 18.1013 61.2658 17.5949 60.7595 17.2152L60.5063 17.0886C59.6203 16.4557 58.481 16.3291 57.4684 16.5823L40.5063 22.1519C39.8734 22.4051 39.2405 22.4051 38.6076 22.1519L24.557 17.2152C23.1646 16.7089 22.0253 15.5696 21.7722 14.0506C21.6456 13.4177 21.6456 12.7848 21.8987 12.1519C22.4051 11.0127 23.2911 10 24.557 9.62025C25.1899 9.49367 25.8228 9.49367 26.3291 9.62025L37.3418 13.4177C38.2278 13.7975 39.3671 13.7975 40.2532 13.4177L40.5063 13.2911C40.8861 13.1646 41.1392 12.9114 41.3924 12.5316C41.6456 12.1519 41.6456 11.6456 41.519 11.2658C41.0127 10 40 8.98734 38.7342 8.48101L21.1392 1.89873C20.2532 1.64557 18.8608 1.26582 17.9747 1.26582H16.3291C14.9367 1.26582 12.7848 1.89873 11.6456 2.65823L0.886076 9.36709L0 8.22785L10.7595 1.51899C12.1519 0.632911 14.557 2.41437e-07 16.2025 2.41437e-07H17.8481C18.8608 2.41437e-07 20.5063 0.253165 21.519 0.632912L39.2405 7.21519C40.8861 7.8481 42.2785 9.11392 42.9114 10.7595C43.1646 11.519 43.1646 12.4051 42.7848 13.1646C42.4051 13.7975 41.8987 14.3038 41.1392 14.557L40.8861 14.6835C39.6203 15.0633 38.2278 15.1899 37.0886 14.6835L26.0759 10.8861C25.8228 10.7595 25.443 10.7595 25.0633 10.8861C24.3038 11.1392 23.6709 11.7722 23.2911 12.5316C23.1646 12.9114 23.1646 13.2911 23.1646 13.6709C23.4177 14.6835 24.0506 15.443 25.0633 15.8228L39.1139 20.7595C39.4937 20.8861 39.7468 20.8861 40.1266 20.7595L56.962 15.1899C58.481 14.6835 60 14.9367 61.2658 15.8228L61.519 15.9494C62.2785 16.4557 62.7848 17.2152 63.1646 18.1013V18.2278C63.2911 19.3671 63.2911 20 62.7848 20.8861L62.6582 21.0127L62.4051 21.3924C61.519 22.5316 60.5063 23.4177 59.1139 23.9241L38.2278 32.6582C37.8481 32.7848 37.5949 32.9114 37.2152 33.038L36.7089 33.1646C36.4557 33.1646 35.9494 33.1646 35.443 33.1646Z" transform="translate(0 16.835)" fill="#F15025"/>
<path d="M35.0684 12.9114C34.9418 12.9114 34.8153 12.9114 34.6887 12.7848L17.8532 1.77215L1.14437 12.7848C0.764623 13.038 0.384877 12.9114 0.131712 12.5316C-0.121452 12.1519 0.00512841 11.7722 0.384875 11.519L17.8532 6.03591e-08L35.4482 11.519C35.8279 11.7722 35.8279 12.1519 35.7013 12.5316C35.5747 12.7848 35.3216 12.9114 35.0684 12.9114Z" transform="translate(21.0068 1.51953)" fill="#F15025"/>
<path d="M8.48101 11.6456L5.94937 9.62025L-9.65746e-07 5.6962V2.1519C-9.65746e-07 1.01266 1.01266 0 2.1519 0H6.32911C7.46835 0 8.48101 1.01266 8.48101 2.1519V11.6456ZM1.51899 4.81013L7.08861 8.6076V2.1519C7.08861 1.77215 6.70886 1.39241 6.32911 1.39241H2.1519C1.77215 1.39241 1.39241 1.77215 1.39241 2.1519V4.81013H1.51899Z" transform="translate(42.7842)" fill="#F15025"/>
<path d="M0.759495 10.3797C0.379748 10.3797 4.82873e-07 10.1266 4.82873e-07 9.62025V0.759494C4.82873e-07 0.379747 0.253165 -4.82873e-07 0.759495 -4.82873e-07C1.13924 -4.82873e-07 1.51899 0.253165 1.51899 0.759494V9.74684C1.51899 10.1266 1.13924 10.3797 0.759495 10.3797Z" transform="translate(25.4424 10.001)" fill="#F15025"/>
<path d="M0.759495 7.72152C0.379748 7.72152 4.82873e-07 7.46835 4.82873e-07 6.96202V0.759494C4.82873e-07 0.379747 0.253165 -4.82873e-07 0.759495 -4.82873e-07C1.13924 -4.82873e-07 1.51899 0.253165 1.51899 0.759494V6.96202C1.51899 7.46835 1.13924 7.72152 0.759495 7.72152Z" transform="translate(25.4424 26.4561)" fill="#F15025"/>
<path d="M0.759494 24.8101C0.379747 24.8101 1.93149e-06 24.557 1.93149e-06 24.0506V0.759494C1.93149e-06 0.379747 0.253165 -4.82873e-07 0.759494 -4.82873e-07C1.13924 -4.82873e-07 1.51899 0.253165 1.51899 0.759494V24.1772C1.51899 24.557 1.13924 24.8101 0.759494 24.8101Z" transform="translate(50.5068 10.001)" fill="#F15025"/>
<path d="M10.3797 12.7848H9.24051C8.86076 12.7848 8.48101 12.5316 8.48101 12.0253C8.48101 11.6456 8.73418 11.2658 9.24051 11.2658H10.3797C10.3797 11.2658 10.5063 11.2658 10.5063 11.1392V1.51899C10.5063 1.39241 10.5063 1.3924 10.3797 1.3924H1.64557C1.51899 1.3924 1.51899 1.51899 1.51899 1.51899V5.94937C1.51899 6.32911 1.26582 6.70886 0.759495 6.70886C0.379748 6.70886 4.82873e-07 6.4557 4.82873e-07 5.94937V1.51899C4.82873e-07 0.632911 0.759493 2.41437e-07 1.51899 2.41437e-07H10.2532C11.1392 2.41437e-07 11.7722 0.632911 11.7722 1.51899V11.3924C11.8987 12.1519 11.2658 12.7848 10.3797 12.7848Z" transform="translate(33.0371 16.835)" fill="#F15025"/>
</svg>
