<svg width="120" height="26" viewBox="0 0 120 26" fill="none" xmlns="http://www.w3.org/2000/svg">
<path d="M118.754 9.30792H112.803C112.249 9.30792 111.695 8.75429 111.695 8.20066V4.18684C111.695 3.91002 111.695 3.6332 111.972 3.35639L115.156 0.311417C115.571 -0.103806 116.124 -0.103806 116.54 0.311417L119.723 3.35639C119.861 3.4948 120 3.6332 120 3.91002V4.04843V8.20066C119.861 8.75429 119.308 9.30792 118.754 9.30792ZM112.803 4.18684V8.20066H118.754V4.18684L115.709 1.28027L112.803 4.18684Z" fill="#c1282d"/>
<path d="M18.8235 25.3625H15.0864L13.564 21.0719C12.0415 22.0407 11.211 22.3175 9.41173 22.3175C7.61243 22.3175 6.78198 22.0407 5.3979 21.0719L3.73701 25.3625H3.2999e-08L7.61243 6.53906H11.3494L18.8235 25.3625ZM11.9031 17.4733L10.519 14.0131L9.41173 11.2449L6.78198 17.4733C7.75083 18.3037 8.02765 18.4421 9.41173 18.4421C10.7958 18.4421 10.9342 18.3037 11.9031 17.4733Z" fill="#02192B"/>
<path d="M35.0169 25.3625H31.1414L28.6501 20.7951C27.4044 21.2103 26.2972 21.2103 25.7435 21.2103C25.3283 21.2103 24.4979 21.2103 24.4979 21.2103V25.5009H20.7609V6.53906H23.3906H24.3595H25.6051C31.2799 6.53906 34.048 9.30722 34.048 14.1515C34.048 16.366 32.9407 17.7501 31.2799 18.9958L35.0169 25.3625ZM26.2972 17.6117C29.7574 17.6117 30.7262 15.8124 30.7262 13.8747C30.7262 11.6601 29.619 9.99926 25.882 9.99926H24.6363V17.4733C24.6363 17.4733 25.1899 17.6117 26.2972 17.6117Z" fill="#02192B"/>
<path d="M50.3803 20.1033C50.3803 23.5635 47.7505 25.3628 44.1519 25.3628C41.107 25.3628 39.0308 24.1171 37.9236 22.4562L40.6917 20.2417C41.3838 21.349 42.491 22.041 44.1519 22.041C45.6744 22.041 46.7817 21.2105 46.7817 20.2417C46.7817 18.996 45.8128 18.4424 44.0135 17.7504L43.0447 17.3351C40.2765 16.0895 38.4772 14.7054 38.4772 11.6604C38.4772 8.89226 40.6917 6.67773 44.0135 6.67773C46.0896 6.67773 47.7505 7.36977 48.8578 9.03067L46.228 11.2452C45.536 10.2763 44.844 9.86111 43.8751 9.86111C42.7679 9.86111 42.0758 10.5532 42.0758 11.522C42.0758 12.6293 42.7679 13.0445 44.4287 13.8749L45.3976 14.2902C48.581 15.5358 50.3803 16.9199 50.3803 20.1033Z" fill="#02192B"/>
<path d="M78.6159 15.9508C78.6159 21.0719 74.4637 25.3625 69.2042 25.3625H66.5744H65.8824H62.9758V6.53906H66.0208H66.5744H69.2042C74.4637 6.53906 78.6159 10.8297 78.6159 15.9508ZM75.1557 15.9508C75.1557 12.7674 72.526 10.1377 69.2042 10.1377H66.5744V21.9023H69.2042C72.526 21.9023 75.1557 19.1342 75.1557 15.9508Z" fill="#02192B"/>
<path d="M81.246 25.3625V6.53906H84.983V25.2241H81.246V25.3625Z" fill="#02192B"/>
<path d="M106.435 6.53906V25.2241H102.837V15.3972L98.9614 23.7016H96.8853H94.8092L90.9338 15.3972V25.3625H87.1968V6.53906H89.4113H90.7954L96.7469 19.411L102.698 6.53906H104.083H106.435Z" fill="#02192B"/>
<path d="M55.917 17.8886C56.9107 17.8886 57.7163 17.0831 57.7163 16.0893C57.7163 15.0956 56.9107 14.29 55.917 14.29C54.9233 14.29 54.1177 15.0956 54.1177 16.0893C54.1177 17.0831 54.9233 17.8886 55.917 17.8886Z" fill="#c1282d"/>
</svg>
