<?xml version="1.0" encoding="utf-8"?>
<!-- Generator: Adobe Illustrator 21.0.2, SVG Export Plug-In . SVG Version: 6.00 Build 0)  -->
<svg version="1.1" id="Layer_1" xmlns="http://www.w3.org/2000/svg" xmlns:xlink="http://www.w3.org/1999/xlink" x="0px" y="0px"
	 viewBox="0 0 300 220" style="enable-background:new 0 0 300 220;" xml:space="preserve">
<style type="text/css">
	.st0{fill:none;stroke:#021A2C;stroke-width:2;stroke-miterlimit:10;}
	.st1{fill:#021A2C;}
	.st2{fill:none;stroke:#021A2C;stroke-width:2;stroke-miterlimit:10;stroke-dasharray:10.5714,10.5714;}
	.st3{fill:none;stroke:#021A2C;stroke-width:2;stroke-miterlimit:10;stroke-dasharray:6.3333,6.3333;}
</style>
<g>
	<polygon class="st1" points="60,111 58,111 58,109.4 54,104.6 50,109.4 50,111 48,111 48,108.6 54,101.4 60,108.6 	"/>
	<polygon class="st1" points="70,111 68,111 68,109.4 64,104.6 60,109.4 60,111 58,111 58,108.6 64,101.4 70,108.6 	"/>
	<polygon class="st1" points="80,111 78,111 78,109.4 74,104.6 70,109.4 70,111 68,111 68,108.6 74,101.4 80,108.6 	"/>
	<polygon class="st1" points="90,111 88,111 88,109.4 84,104.6 80,109.4 80,111 78,111 78,108.6 84,101.4 90,108.6 	"/>
	<polygon class="st1" points="100,111 98,111 98,109.4 94,104.6 90,109.4 90,111 88,111 88,108.6 94,101.4 100,108.6 	"/>
	<polygon class="st1" points="110,111 108,111 108,109.4 104,104.6 100,109.4 100,111 98,111 98,108.6 104,101.4 110,108.6 	"/>
	<polygon class="st1" points="120,111 118,111 118,109.4 114,104.6 110,109.4 110,111 108,111 108,108.6 114,101.4 120,108.6 	"/>
	<rect x="43" y="147" class="st1" width="195" height="2"/>
	<rect x="48" y="109" class="st1" width="2" height="39"/>
	<rect x="58" y="109" class="st1" width="2" height="39"/>
	<rect x="68" y="109" class="st1" width="2" height="39"/>
	<rect x="78" y="109" class="st1" width="2" height="39"/>
	<rect x="88" y="109" class="st1" width="2" height="39"/>
	<rect x="98" y="109" class="st1" width="2" height="39"/>
	<rect x="108" y="109" class="st1" width="2" height="39"/>
	<rect x="118" y="109" class="st1" width="2" height="39"/>
	<path class="st1" d="M155,149c-5,0-9-4-9-9s4-9,9-9s9,4,9,9S160,149,155,149z M155,133c-3.9,0-7,3.1-7,7s3.1,7,7,7s7-3.1,7-7
		S158.9,133,155,133z"/>
	<path class="st1" d="M214,149c-5,0-9-4-9-9s4-9,9-9s9,4,9,9S219,149,214,149z M214,133c-3.9,0-7,3.1-7,7s3.1,7,7,7s7-3.1,7-7
		S217.9,133,214,133z"/>
	<rect x="163.2" y="139" class="st1" width="42.3" height="2"/>
	<path class="st1" d="M230,141h-7.8v-2h5.8v-11h-87v4.5c0,3.6,2.9,6.5,6.5,6.5v2c-4.7,0-8.5-3.8-8.5-8.5V126h91V141z"/>
	<path class="st1" d="M173,128h-34v-10c0-11.6,9.4-21,21-21h13V128z M141,126h30V99h-11c-10.5,0-19,8.5-19,19V126z"/>
	<path class="st1" d="M168,116h-22v-1c0-7.7,6.3-14,14-14h8V116z M148,114h18v-11h-6C153.7,103,148.6,107.8,148,114z"/>
	<path class="st1" d="M217,128h-12c-1.1,0-2-0.9-2-2v-18c0-2.2,1.8-4,4-4h8c2.2,0,4,1.8,4,4v18C219,127.1,218.1,128,217,128z
		 M217,126v1V126L217,126L217,126z M207,106c-1.1,0-2,0.9-2,2v18h12l0-18c0-1.1-0.9-2-2-2H207z"/>
	<path class="st1" d="M203,128h-14c-1.1,0-2-0.9-2-2V99c0-2.2,1.8-4,4-4h10c2.2,0,4,1.8,4,4v27C205,127.1,204.1,128,203,128z
		 M203,126v1V126L203,126L203,126z M191,97c-1.1,0-2,0.9-2,2v27h14l0-27c0-1.1-0.9-2-2-2H191z"/>
	<path class="st1" d="M192,128h-10.5c-1.9,0-3.5-1.6-3.5-3.5V90.5c0-1.9,1.6-3.5,3.5-3.5h11.1c1.9,0,3.5,1.6,3.5,3.5V96h-2v-5.5
		c0-0.8-0.7-1.5-1.5-1.5h-11.1c-0.8,0-1.5,0.7-1.5,1.5v34.1c0,0.8,0.7,1.5,1.5,1.5H192V128z"/>
</g>
</svg>
