<?xml version="1.0" encoding="utf-8"?>
<!-- Generator: Adobe Illustrator 21.0.2, SVG Export Plug-In . SVG Version: 6.00 Build 0)  -->
<svg version="1.1" id="Layer_1" xmlns="http://www.w3.org/2000/svg" xmlns:xlink="http://www.w3.org/1999/xlink" x="0px" y="0px"
	 viewBox="0 0 300 220" style="enable-background:new 0 0 300 220;" xml:space="preserve">
<style type="text/css">
	.st0{fill:none;stroke:#021A2C;stroke-width:2;stroke-miterlimit:10;}
	.st1{fill:#021A2C;}
	.st2{fill:none;stroke:#021A2C;stroke-width:2;stroke-miterlimit:10;stroke-dasharray:10.5714,10.5714;}
	.st3{fill:none;stroke:#021A2C;stroke-width:2;stroke-miterlimit:10;stroke-dasharray:6.3333,6.3333;}
</style>
<g>
	<path class="st1" d="M213,148h-33v-41h33V148z M182,146h29v-37h-29V146z"/>
	<path class="st1" d="M96,148H72V86h24V148z M74,146h20V88H74V146z"/>
	<path class="st1" d="M96,112H84c-1.1,0-2-0.9-2-2V96c0-1.1,0.9-2,2-2h12V112z M84,96v14h10V96H84z"/>
	<path class="st1" d="M96,136H84c-1.1,0-2-0.9-2-2v-14c0-1.1,0.9-2,2-2h12V136z M84,120v14h10v-14H84z"/>
	<path class="st1" d="M213,148h-33v-41h33V148z M182,146h29v-37h-29V146z"/>
	<path class="st1" d="M197.5,122.1H180v-15.6h17.5V122.1z M182,120.1h13.5v-11.6H182V120.1z"/>
	<path class="st1" d="M213,122.1h-17.5v-15.6H213V122.1z M197.5,120.1H211v-11.6h-13.5V120.1z"/>
	<path class="st1" d="M197.5,135H180v-15.6h17.5V135z M182,133h13.5v-11.6H182V133z"/>
	<path class="st1" d="M213,135h-17.5v-15.6H213V135z M197.5,133H211v-11.6h-13.5V133z"/>
	<path class="st1" d="M197.5,148H180v-15.6h17.5V148z M182,146h13.5v-11.6H182V146z"/>
	<path class="st1" d="M213,148h-17.5v-15.6H213V148z M197.5,146H211v-11.6h-13.5V146z"/>
	<rect x="80" y="146" class="st1" width="195" height="2"/>
	<path class="st1" d="M149.3,148h-23v-21c0-1.1,0.9-2,2-2h19c1.1,0,2,0.9,2,2V148z M128.3,146h19v-19h-19V146z"/>
	<path class="st1" d="M173,92h-18c-1.1,0-2-0.9-2-2V74c0-1.1,0.9-2,2-2h18c1.1,0,2,0.9,2,2v16C175,91.1,174.1,92,173,92z M155,74v16
		h18l0-16H155z"/>
	<path class="st1" d="M147,92h-18c-1.1,0-2-0.9-2-2V74c0-1.1,0.9-2,2-2h18c1.1,0,2,0.9,2,2v16C149,91.1,148.1,92,147,92z M129,74v16
		h18l0-16H129z"/>
	<path class="st1" d="M120,92h-18c-1.1,0-2-0.9-2-2V74c0-1.1,0.9-2,2-2h18c1.1,0,2,0.9,2,2v16C122,91.1,121.1,92,120,92z M102,74v16
		h18l0-16H102z"/>
	<path class="st1" d="M173,116h-18c-1.1,0-2-0.9-2-2V98c0-1.1,0.9-2,2-2h18c1.1,0,2,0.9,2,2v16C175,115.1,174.1,116,173,116z
		 M155,98v16h18l0-16H155z"/>
	<path class="st1" d="M147,116h-18c-1.1,0-2-0.9-2-2V98c0-1.1,0.9-2,2-2h18c1.1,0,2,0.9,2,2v16C149,115.1,148.1,116,147,116z
		 M129,98v16h18l0-16H129z"/>
	<path class="st1" d="M120,116h-18c-1.1,0-2-0.9-2-2V98c0-1.1,0.9-2,2-2h18c1.1,0,2,0.9,2,2v16C122,115.1,121.1,116,120,116z
		 M102,98v16h18l0-16H102z"/>
	<path class="st1" d="M177.3,64H94V31.5L177.3,64z M96,62h70.7L96,34.5V62z"/>
	<path class="st1" d="M182,148H94V31.5l88,33.8V148z M96,146h84V66.7L96,34.5V146z"/>
	<rect x="106" y="38" class="st1" width="2" height="25"/>
	<rect x="121" y="43" class="st1" width="2" height="20"/>
	<rect x="136" y="49" class="st1" width="2" height="14"/>
	<rect x="150" y="54" class="st1" width="2" height="9"/>
	<path class="st1" d="M119,145h-17c-1.1,0-2-0.9-2-2v-16c0-1.1,0.9-2,2-2h17c1.1,0,2,0.9,2,2v16C121,144.1,120.1,145,119,145z
		 M102,127v16h17l0-16H102z"/>
	<path class="st1" d="M173,145h-16c-1.1,0-2-0.9-2-2v-16c0-1.1,0.9-2,2-2h16c1.1,0,2,0.9,2,2v16C175,144.1,174.1,145,173,145z
		 M157,127v16h16l0-16H157z"/>
</g>
</svg>
